\relax 
\providecommand\hyper@newdestlabel[2]{}
\catcode `"\active 
\providecommand\HyperFirstAtBeginDocument{\AtBeginDocument}
\HyperFirstAtBeginDocument{\ifx\hyper@anchor\@undefined
\global\let\oldcontentsline\contentsline
\gdef\contentsline#1#2#3#4{\oldcontentsline{#1}{#2}{#3}}
\global\let\oldnewlabel\newlabel
\gdef\newlabel#1#2{\newlabelxx{#1}#2}
\gdef\newlabelxx#1#2#3#4#5#6{\oldnewlabel{#1}{{#2}{#3}}}
\AtEndDocument{\ifx\hyper@anchor\@undefined
\let\contentsline\oldcontentsline
\let\newlabel\oldnewlabel
\fi}
\fi}
\global\let\hyper@last\relax 
\gdef\HyperFirstAtBeginDocument#1{#1}
\providecommand\HyField@AuxAddToFields[1]{}
\providecommand\HyField@AuxAddToCoFields[2]{}
\babel@aux{serbian}{}
\@writefile{toc}{\contentsline {section}{\numberline {1}Opis problema}{2}{section.1}}
\newlabel{sec:Uvod}{{1}{2}{Opis problema}{section.1}{}}
\@writefile{toc}{\contentsline {section}{\numberline {2}Naivni algoritam}{2}{section.2}}
\newlabel{sec:Naivni}{{2}{2}{Naivni algoritam}{section.2}{}}
\@writefile{lof}{\contentsline {figure}{\numberline {2.1}{\ignorespaces Prikaz implementacije algoritma zasnovanog na bri\v {s}u\'c{}oj pravoj.\relax }}{2}{figure.caption.2}}
\providecommand*\caption@xref[2]{\@setref\relax\@undefined{#1}}
\newlabel{fig2}{{2.1}{2}{Prikaz implementacije algoritma zasnovanog na bri\v {s}u\'c{}oj pravoj.\relax }{figure.caption.2}{}}
\@writefile{loa}{\contentsline {algorithm}{\numberline {1}{\ignorespaces UnijaPravougaonika\relax }}{3}{algorithm.1}}
\newlabel{UnijaPravougaonikaPseudo}{{1}{3}{UnijaPravougaonika\relax }{algorithm.1}{}}
\@writefile{toc}{\contentsline {subsection}{\numberline {2.1}Detalji implementacije}{3}{subsection.2.1}}
\newlabel{subsec:ImplementacijaNaivni}{{2.1}{3}{Detalji implementacije}{subsection.2.1}{}}
\@writefile{toc}{\contentsline {section}{\numberline {3}Efikasni algoritam}{3}{section.3}}
\newlabel{sec:Efikasni}{{3}{3}{Efikasni algoritam}{section.3}{}}
\@writefile{loa}{\contentsline {algorithm}{\numberline {2}{\ignorespaces UnijaIntervala\relax }}{4}{algorithm.2}}
\newlabel{UnijaIntervalaPseudo}{{2}{4}{UnijaIntervala\relax }{algorithm.2}{}}
\@writefile{toc}{\contentsline {subsection}{\numberline {3.1}Implementacija efikasnog statusa}{4}{subsection.3.1}}
\newlabel{subsec:ImplementacijaEfikasni}{{3.1}{4}{Implementacija efikasnog statusa}{subsection.3.1}{}}
\@writefile{loa}{\contentsline {algorithm}{\numberline {3}{\ignorespaces EfikasnaUnijaPravougaonika\relax }}{5}{algorithm.3}}
\newlabel{EfikasnaUnijaPravougaonikaPseudo}{{3}{5}{EfikasnaUnijaPravougaonika\relax }{algorithm.3}{}}
\@writefile{lof}{\contentsline {figure}{\numberline {3.1}{\ignorespaces Vizuelizacija efikasnog statusa.\relax }}{5}{figure.caption.3}}
\newlabel{fig3}{{3.1}{5}{Vizuelizacija efikasnog statusa.\relax }{figure.caption.3}{}}
\@writefile{lof}{\contentsline {figure}{\numberline {3.2}{\ignorespaces Slu\v {c}ajevi koji se razmatraju pri ra\v {c}unanju mere za \v {c}vor.\relax }}{7}{figure.caption.4}}
\newlabel{fig4}{{3.2}{7}{Slu\v {c}ajevi koji se razmatraju pri ra\v {c}unanju mere za \v {c}vor.\relax }{figure.caption.4}{}}
\@writefile{toc}{\contentsline {section}{\numberline {4}Poredjenje efikasnosti}{7}{section.4}}
\newlabel{sec:Poredjenje}{{4}{7}{Poredjenje efikasnosti}{section.4}{}}
\newlabel{tbl:Poredjenje}{{\caption@xref {tbl:Poredjenje}{ on input line 275}}{7}{Poredjenje efikasnosti}{table.caption.5}{}}
\newlabel{fig5}{{\caption@xref {fig5}{ on input line 281}}{7}{Poredjenje efikasnosti}{figure.caption.6}{}}
\@writefile{toc}{\contentsline {section}{\numberline {5}Testiranje ispravnosti}{7}{section.5}}
\newlabel{sec:Testovi}{{5}{7}{Testiranje ispravnosti}{section.5}{}}
\newlabel{fig10}{{\caption@xref {fig10}{ on input line 294}}{8}{Testiranje ispravnosti}{figure.caption.7}{}}
\newlabel{fig11}{{\caption@xref {fig11}{ on input line 300}}{8}{Testiranje ispravnosti}{figure.caption.8}{}}
\newlabel{fig12}{{\caption@xref {fig12}{ on input line 306}}{8}{Testiranje ispravnosti}{figure.caption.9}{}}
