\babel@toc {serbian}{}
\contentsline {section}{\numberline {1}Opis problema}{2}{section.1}
\contentsline {section}{\numberline {2}Naivni algoritam}{2}{section.2}
\contentsline {subsection}{\numberline {2.1}Detalji implementacije}{3}{subsection.2.1}
\contentsline {section}{\numberline {3}Efikasni algoritam}{3}{section.3}
\contentsline {subsection}{\numberline {3.1}Implementacija efikasnog statusa}{4}{subsection.3.1}
\contentsline {section}{\numberline {4}Poredjenje efikasnosti}{7}{section.4}
\contentsline {section}{\numberline {5}Testiranje ispravnosti}{7}{section.5}
