\relax 
\providecommand\hyper@newdestlabel[2]{}
\catcode `"\active 
\providecommand\HyperFirstAtBeginDocument{\AtBeginDocument}
\HyperFirstAtBeginDocument{\ifx\hyper@anchor\@undefined
\global\let\oldcontentsline\contentsline
\gdef\contentsline#1#2#3#4{\oldcontentsline{#1}{#2}{#3}}
\global\let\oldnewlabel\newlabel
\gdef\newlabel#1#2{\newlabelxx{#1}#2}
\gdef\newlabelxx#1#2#3#4#5#6{\oldnewlabel{#1}{{#2}{#3}}}
\AtEndDocument{\ifx\hyper@anchor\@undefined
\let\contentsline\oldcontentsline
\let\newlabel\oldnewlabel
\fi}
\fi}
\global\let\hyper@last\relax 
\gdef\HyperFirstAtBeginDocument#1{#1}
\providecommand\HyField@AuxAddToFields[1]{}
\providecommand\HyField@AuxAddToCoFields[2]{}
\babel@aux{serbian}{}
\@writefile{toc}{\contentsline {section}{\numberline {1}Opis problema}{2}{section.1}}
\newlabel{sec:Uvod}{{1}{2}{Opis problema}{section.1}{}}
\@writefile{toc}{\contentsline {section}{\numberline {2}Opis izra\v {c}unavanja}{2}{section.2}}
\newlabel{sec:Izracunavanje}{{2}{2}{Opis izra\v {c}unavanja}{section.2}{}}
\@writefile{lof}{\contentsline {figure}{\numberline {2.1}{\ignorespaces Re\v {s}enje po x\relax }}{3}{figure.caption.2}}
\providecommand*\caption@xref[2]{\@setref\relax\@undefined{#1}}
\newlabel{fig0}{{2.1}{3}{Re\v {s}enje po x\relax }{figure.caption.2}{}}
\@writefile{toc}{\contentsline {subsection}{\numberline {2.1}Promena koordinatnog sistema}{4}{subsection.2.1}}
\newlabel{sec:kSistem}{{2.1}{4}{Promena koordinatnog sistema}{subsection.2.1}{}}
\@writefile{lof}{\contentsline {figure}{\numberline {2.2}{\ignorespaces Koordinatni sistem\relax }}{4}{figure.caption.3}}
\newlabel{fig1}{{2.2}{4}{Koordinatni sistem\relax }{figure.caption.3}{}}
\@writefile{toc}{\contentsline {subsection}{\numberline {2.2}Transformacije koordinatnog sistema}{4}{subsection.2.2}}
\newlabel{transformacijaVektora}{{2.2}{4}{Transformacije koordinatnog sistema}{subsection.2.2}{}}
\@writefile{toc}{\contentsline {subsection}{\numberline {2.3}Pojednostavljena trilateracija}{5}{subsection.2.3}}
\newlabel{sec:trilateracija}{{2.3}{5}{Pojednostavljena trilateracija}{subsection.2.3}{}}
\@writefile{toc}{\contentsline {section}{\numberline {3}Implementacija}{5}{section.3}}
\newlabel{sec:implementacija}{{3}{5}{Implementacija}{section.3}{}}
\@writefile{toc}{\contentsline {section}{\numberline {4}Testiranje ispravnosti}{7}{section.4}}
\newlabel{sec:Testovi}{{4}{7}{Testiranje ispravnosti}{section.4}{}}
\newlabel{fig10}{{\caption@xref {fig10}{ on input line 201}}{7}{Testiranje ispravnosti}{figure.caption.4}{}}
\newlabel{fig11}{{\caption@xref {fig11}{ on input line 207}}{7}{Testiranje ispravnosti}{figure.caption.5}{}}
