\babel@toc {serbian}{}
\contentsline {section}{\numberline {1}Opis problema}{2}{section.1}
\contentsline {section}{\numberline {2}Opis izra\v {c}unavanja}{2}{section.2}
\contentsline {subsection}{\numberline {2.1}Promena koordinatnog sistema}{4}{subsection.2.1}
\contentsline {subsection}{\numberline {2.2}Transformacije koordinatnog sistema}{4}{subsection.2.2}
\contentsline {subsection}{\numberline {2.3}Pojednostavljena trilateracija}{5}{subsection.2.3}
\contentsline {section}{\numberline {3}Implementacija}{5}{section.3}
\contentsline {section}{\numberline {4}Testiranje ispravnosti}{7}{section.4}
